report_feb15_2024
…
Doubly Robust DID

(Sant’Anna and Zhao 2020)

データを年ごとにグループ化してネストさせる

nested_data <- df_did2 |> 
  group_by(year) |> 
  nest()

nested_data

# A tibble: 27 × 2
# Groups:   year [27]
    year data               
   <dbl> <list>             
 1  1975 <tibble [201 × 47]>
 2  1980 <tibble [201 × 47]>
 3  1981 <tibble [201 × 47]>
 4  1982 <tibble [201 × 47]>
 5  1983 <tibble [201 × 47]>
 6  1984 <tibble [201 × 47]>
 7  1985 <tibble [201 × 47]>
 8  1986 <tibble [201 × 47]>
 9  1987 <tibble [201 × 47]>
10  1988 <tibble [201 × 47]>
# ℹ 17 more rows

nested_data$data[[17]]

# A tibble: 201 × 47
      id name  agri_output employed fisical_index newborn offices prdctn_output
   <dbl> <chr>       <dbl>    <dbl>         <dbl>   <dbl>   <dbl>         <dbl>
 1    45 北海…       23860       NA          0.53    1868      NA        114577
 2    34 北海…       35250       NA          0.42    1238      NA        144180
 3    44 北海…       26710       NA          0.38     774      NA         69524
 4    74 北海…       17130       NA          0.4      414      NA         39015
 5    67 北海…        1130       NA          0.38     240      NA         35689
 6    72 北海…        6030       NA          0.35     392      NA         68006
 7    73 北海…        5630       NA          0.32     232      NA         58011
 8    37 北海…       14000       NA          0.24     227      NA         20485
 9    35 北海…       10800       NA          0.26     358      NA         21369
10    19 北海…        2030       NA          0.17      64      NA         29791
# ℹ 191 more rows
# ℹ 39 more variables: sales <dbl>, taxableincome_cpt <dbl>,
#   taxableincome_rgn <dbl>, totalpop <dbl>, A4101_出生数 <dbl>,
#   A4200_死亡数 <dbl>, F2705_他市区町村への通勤者数 <dbl>,
#   A9101_婚姻件数組 <dbl>, A9201_離婚件数組 <dbl>, A1303_65歳以上口 <dbl>,
#   `A6103_流出口県内他市区町村で従業・通学している口` <dbl>,
#   K3101_交通事故発生件数件 <dbl>, K4201_刑法犯認知件数件 <dbl>, …
…
